Name,WeightClassKg,Division,Sex,Best3SquatKg,Best3BenchKg,Best3DeadliftKg,TotalKg,Event,Equipment,Place
D. Krauss,63.5,Club,M,108.86,99.79,127.01,335.66,SBD,Single-ply,1
G. Holland,63.5,Club,M,92.99,72.57,124.74,290.3,SBD,Single-ply,2
A. Mazzarelli,63.5,Club,M,,63.5,104.33,,SBD,Single-ply,DQ
J. Bankes,63.5,Club,M,79.38,,,,SBD,Single-ply,DQ
R. Tierno,72.57,Club,M,124.74,,149.69,,SBD,Single-ply,DQ
J. Smart,72.57+,Club,M,158.76,117.93,192.78,469.47,SBD,Single-ply,1
Floyd Clark,56,Open,M,133.81,102.06,165.56,401.43,SBD,Single-ply,1
Fred Glass,56,Open,M,149.69,68.04,174.63,392.36,SBD,Single-ply,2
I. Wiener,56,Open,M,88.45,77.11,122.47,288.03,SBD,Single-ply,3
E. McCorrister,56,Open,M,,86.18,151.95,,SBD,Single-ply,DQ
Gary Burton,60,Open,M,133.81,90.72,172.37,396.89,SBD,Single-ply,1
S. Forline,60,Open,M,113.4,81.65,149.69,344.73,SBD,Single-ply,2
Vincent Faust,67.5,Open,M,172.37,124.74,215.46,512.56,SBD,Single-ply,1
R. Walsh,67.5,Open,M,192.78,111.13,204.12,508.02,SBD,Single-ply,2
W. Wiener,67.5,Open,M,183.71,124.74,199.58,508.02,SBD,Single-ply,3
Paul Sacco,67.5,Open,M,165.56,131.54,201.85,498.95,SBD,Single-ply,4
B. Jackson,67.5,Open,M,156.49,106.59,204.12,467.2,SBD,Single-ply,5
Tagg Shiley,67.5,Open,M,172.37,127.01,149.69,449.06,SBD,Single-ply,6
J. Lerner,67.5,Open,M,124.74,102.06,181.44,408.23,SBD,Single-ply,7
R. Ferro,67.5,Open,M,104.33,90.72,163.29,358.34,SBD,Single-ply,8
J. Wood,67.5,Open,M,136.08,117.93,,,SBD,Single-ply,DQ
Sam Gehring,75,Open,M,213.19,140.61,233.6,587.4,SBD,Single-ply,1
G. Ferro,75,Open,M,170.1,129.27,197.31,496.68,SBD,Single-ply,2
D. Chila,75,Open,M,176.9,120.2,192.78,489.88,SBD,Single-ply,3
G. Powell,75,Open,M,179.17,111.13,192.78,483.08,SBD,Single-ply,4
P. Lancetta,75,Open,M,161.03,129.27,185.97,476.27,SBD,Single-ply,5
F. Consolloy,75,Open,M,170.1,122.47,181.44,474,SBD,Single-ply,6
A. Licklidier,75,Open,M,179.17,97.52,192.78,469.47,SBD,Single-ply,7
S. Brier,75,Open,M,158.76,104.33,183.71,446.79,SBD,Single-ply,8
L. Bastedo,75,Open,M,124.74,136.08,174.63,435.45,SBD,Single-ply,9
D. LaFage,75,Open,M,170.1,77.11,181.44,428.65,SBD,Single-ply,10
S. Ferrero,75,Open,M,145.15,102.06,158.76,405.97,SBD,Single-ply,11
James Martino,75,Open,M,,154.22,,154.22,B,Raw,1
D. Orbaczewski,75,Open,M,,133.81,,133.81,B,Raw,2
N. DiMarino,75,Open,M,,,,,SBD,Single-ply,DQ
Garry Rette,82.5,Open,M,233.6,127.01,240.4,601.01,SBD,Single-ply,1
Rich Branch,82.5,Open,M,233.6,142.88,222.26,598.74,SBD,Single-ply,2
G. Ringel,82.5,Open,M,176.9,117.93,215.46,510.29,SBD,Single-ply,3
P. Stewart,82.5,Open,M,167.83,127.01,208.65,503.49,SBD,Single-ply,4
Tim McClellan,82.5,Open,M,176.9,117.93,195.04,489.88,SBD,Single-ply,5
J. Hansbury,82.5,Open,M,185.97,99.79,181.44,467.2,SBD,Single-ply,6
V. Travalino,82.5,Open,M,,136.08,210.92,,SBD,Single-ply,DQ
B. Gontarski,82.5,Open,M,,99.79,197.31,,SBD,Single-ply,DQ
G. Swan,82.5,Open,M,,99.79,170.1,,SBD,Single-ply,DQ
J. Young,82.5,Open,M,,181.44,,181.44,B,Raw,1
R. Johnson,82.5,Open,M,,179.17,,179.17,B,Raw,2
Charles Cole,90,Open,M,204.12,154.22,247.21,605.55,SBD,Single-ply,1
R. Visconti,90,Open,M,213.19,129.27,226.8,569.26,SBD,Single-ply,2
Steve Iovino,90,Open,M,176.9,145.15,229.06,551.12,SBD,Single-ply,3
E. Holland,90,Open,M,192.78,117.93,229.06,539.78,SBD,Single-ply,4
Ted Kurlowicz,90,Open,M,,183.71,,183.71,B,Raw,1
J. Baynard,90,Open,M,,167.83,,167.83,B,Raw,2
T. Cunningham,90,Open,M,,167.83,,167.83,B,Raw,3
M. Orr,90,Open,M,,,,,SBD,Single-ply,DQ
Mike Metchikian,100,Open,M,306.18,188.24,272.16,766.57,SBD,Single-ply,1
Pat Brago,100,Open,M,294.84,181.44,272.16,748.43,SBD,Single-ply,2
B. Lista,100,Open,M,204.12,145.15,226.8,576.06,SBD,Single-ply,3
B. Feeney,100,Open,M,,163.29,251.74,,SBD,Single-ply,DQ
Chris Lajoie,100,Open,M,,170.1,,170.1,B,Raw,1
T. Cole,100,Open,M,,165.56,,165.56,B,Raw,2
Charlie Kelly,110,Open,M,285.76,231.33,285.76,802.86,SBD,Single-ply,1
Craig Carvin,110,Open,M,256.28,151.95,274.42,682.66,SBD,Single-ply,2
Henry Ricci,110,Open,M,226.8,149.69,238.14,614.62,SBD,Single-ply,3
M. Warlie,110,Open,M,199.58,120.2,231.33,551.12,SBD,Single-ply,4
V. Vilardi,110,Open,M,213.19,181.44,,,SBD,Single-ply,DQ
Ed Riley #1,125,Open,M,317.52,215.46,272.16,805.13,SBD,Single-ply,1
T. Toporek,125,Open,M,215.46,131.54,244.94,591.94,SBD,Single-ply,3
A. Garguilo,125,Open,M,213.19,158.76,226.8,598.74,SBD,Single-ply,2
L. Quarles,125,Open,M,,176.9,,176.9,B,Raw,1
Bill Brown,125+,Open,M,113.4,,195.04,,SBD,Single-ply,DQ
Franz Adler,125+,Open,M,,176.9,,176.9,B,Raw,1
Cathy Spellman,,Open,F,149.69,70.31,167.83,387.82,SBD,Single-ply,1
Gerri Ellingsworth,,Open,F,102.06,47.63,127.01,276.69,SBD,Single-ply,2
