Name,WeightClassKg,Division,Sex,Best3SquatKg,Best3BenchKg,Best3DeadliftKg,TotalKg,Event,Equipment,Place
Denise Wisniewski,44,Collegiate,F,77.5,32.5,97.5,207.5,SBD,Single-ply,1
Kim Ashton,44,Collegiate,F,62.5,35,90,187.5,SBD,Single-ply,2
M. Stipano,48,Collegiate,F,102.5,55,132.5,290,SBD,Single-ply,1
K. Eggers,48,Collegiate,F,72.5,37.5,115,225,SBD,Single-ply,2
C. Haman,48,Collegiate,F,85,47.5,92.5,225,SBD,Single-ply,3
Shauna Houser,52,Collegiate,F,132.5,62.5,130,325,SBD,Single-ply,1
K. Cramelin,52,Collegiate,F,102.5,45,112.5,260,SBD,Single-ply,2
C. Williams,52,Collegiate,F,85,32.5,105,222.5,SBD,Single-ply,3
L. Maclead,56,Collegiate,F,115,70,145,330,SBD,Single-ply,1
M. Jackson,56,Collegiate,F,122.5,60,135,317.5,SBD,Single-ply,2
T. Singleton,56,Collegiate,F,127.5,62.5,120,310,SBD,Single-ply,3
M. Washington,56,Collegiate,F,100,55,112.5,267.5,SBD,Single-ply,4
C. Freeman,56,Collegiate,F,85,42.5,120,247.5,SBD,Single-ply,5
D. Wellington,60,Collegiate,F,135,62.5,137.5,335,SBD,Single-ply,1
J. McCrogan,60,Collegiate,F,100,72.5,142.5,315,SBD,Single-ply,2
Merry Montgomery,60,Collegiate,F,125,55,130,310,SBD,Single-ply,3
E. Horne,60,Collegiate,F,102.5,50,125,277.5,SBD,Single-ply,4
Vonda Armstrong,60,Collegiate,F,102.5,45,130,277.5,SBD,Single-ply,5
D. Collins,60,Collegiate,F,97.5,42.5,132.5,272.5,SBD,Single-ply,6
T. Brame,60,Collegiate,F,90,55,120,265,SBD,Single-ply,7
Doranea Clark,67.5,Collegiate,F,142.5,65,152.5,360,SBD,Single-ply,1
B. Newgard,67.5,Collegiate,F,122.5,70,140,332.5,SBD,Single-ply,2
P. Schasberger,67.5,Collegiate,F,115,67.5,120,302.5,SBD,Single-ply,3
K. White,67.5,Collegiate,F,105,52.5,125,282.5,SBD,Single-ply,4
M. Wegner,67.5,Collegiate,F,110,42.5,122.5,275,SBD,Single-ply,5
J. Kelly,75,Collegiate,F,125,67.5,162.5,355,SBD,Single-ply,1
Kris Stafford,75,Collegiate,F,137.5,67.5,150,355,SBD,Single-ply,2
L. Bozzelli,75,Collegiate,F,117.5,52.5,130,300,SBD,Single-ply,3
Shavonda Bland,82.5,Collegiate,F,162.5,65,137.5,365,SBD,Single-ply,1
L. Butts,90,Collegiate,F,172.5,77.5,195,445,SBD,Single-ply,1
M. Magnan,90,Collegiate,F,145,60,160,365,SBD,Single-ply,2
V. Berkley,90+,Collegiate,F,202.5,70,187.5,460,SBD,Single-ply,1
Phillip Hile,52,Collegiate,M,197.5,112.5,202.5,512.5,SBD,Single-ply,1
Harris Moore,52,Collegiate,M,177.5,102.5,175,455,SBD,Single-ply,2
C. Murphy,52,Collegiate,M,147.5,87.5,157.5,392.5,SBD,Single-ply,3
C. Wauthope,52,Collegiate,M,142.5,80,147.5,370,SBD,Single-ply,4
Jeff Ayers,52,Collegiate,M,177.5,90,100,367.5,SBD,Single-ply,5
J. Gobbell,56,Collegiate,M,150,107.5,182.5,440,SBD,Single-ply,1
C. Landman,56,Collegiate,M,162.5,82.5,185,430,SBD,Single-ply,2
Thayer Spencer,56,Collegiate,M,140,107.5,167.5,415,SBD,Single-ply,3
G. Kinsman,56,Collegiate,M,137.5,102.5,167.5,407.5,SBD,Single-ply,4
S. Choi,56,Collegiate,M,162.5,75,170,407.5,SBD,Single-ply,5
Z. Bechtol,56,Collegiate,M,125,97.5,150,372.5,SBD,Single-ply,6
N. Vision,56,Collegiate,M,137.5,85,147.5,370,SBD,Single-ply,7
Todd Suttles,60,Collegiate,M,215,147.5,245,607.5,SBD,Single-ply,1
Nate Balsham,60,Collegiate,M,192.5,112.5,240,545,SBD,Single-ply,2
Phuc Le,60,Collegiate,M,197.5,117.5,210,525,SBD,Single-ply,3
A. Mitchell,60,Collegiate,M,195,125,195,515,SBD,Single-ply,4
J. Clady,60,Collegiate,M,165,120,182.5,467.5,SBD,Single-ply,5
K. Williams,60,Collegiate,M,182.5,107.5,167.5,457.5,SBD,Single-ply,6
A. Herbert,60,Collegiate,M,167.5,115,165,447.5,SBD,Single-ply,7
J. Sweetin,60,Collegiate,M,170,95,172.5,437.5,SBD,Single-ply,8
Ken Finley,60,Collegiate,M,135,92.5,192.5,420,SBD,Single-ply,9
Bubba Wolford,67.5,Collegiate,M,250,147.5,227.5,625,SBD,Single-ply,1
R. Gorumba,67.5,Collegiate,M,227.5,130,240,597.5,SBD,Single-ply,2
Ricky Williams,67.5,Collegiate,M,222.5,127.5,232.5,582.5,SBD,Single-ply,3
Michael Cagiola,67.5,Collegiate,M,212.5,142.5,217.5,572.5,SBD,Single-ply,4
E. Zerphy,67.5,Collegiate,M,212.5,127.5,215,555,SBD,Single-ply,5
P. Bachand,67.5,Collegiate,M,205,117.5,225,547.5,SBD,Single-ply,6
D. Pilliliere,67.5,Collegiate,M,195,120,227.5,542.5,SBD,Single-ply,7
D. Denny,67.5,Collegiate,M,185,137.5,215,537.5,SBD,Single-ply,8
A. Ambeau,67.5,Collegiate,M,215,115,205,535,SBD,Single-ply,9
E. White,67.5,Collegiate,M,182.5,135,215,532.5,SBD,Single-ply,10
M. Vassalotti,67.5,Collegiate,M,200,125,200,525,SBD,Single-ply,11
P. Benedit,75,Collegiate,M,215,177.5,257.5,650,SBD,Single-ply,1
D. Pearlstein,75,Collegiate,M,242.5,145,247.5,635,SBD,Single-ply,2
J. Detwiler,75,Collegiate,M,242.5,142.5,245,630,SBD,Single-ply,3
G. Viggiano,75,Collegiate,M,210,140,260,610,SBD,Single-ply,4
Mike Stokes #1,75,Collegiate,M,227.5,145,237.5,610,SBD,Single-ply,5
D. Mathis,75,Collegiate,M,215,135,245,595,SBD,Single-ply,6
M. Winick,75,Collegiate,M,232.5,145,212.5,590,SBD,Single-ply,7
F. Schenk,75,Collegiate,M,232.5,127.5,217.5,577.5,SBD,Single-ply,8
David Gauthier,75,Collegiate,M,,,,,SBD,Single-ply,DQ
J. Tiger,75,Collegiate,M,,,,,SBD,Single-ply,DQ
R. Williams,82.5,Collegiate,M,280,172.5,275,727.5,SBD,Single-ply,1
Pat Roche,82.5,Collegiate,M,290,157.5,267.5,715,SBD,Single-ply,2
M. Barkil,82.5,Collegiate,M,250,177.5,280,707.5,SBD,Single-ply,3
C. Hoover,82.5,Collegiate,M,277.5,142.5,282.5,702.5,SBD,Single-ply,4
R. Gregory,82.5,Collegiate,M,255,145,267.5,667.5,SBD,Single-ply,6
J. Raymer,82.5,Collegiate,M,242.5,160,267.5,670,SBD,Single-ply,5
M. Matthews,82.5,Collegiate,M,250,157.5,240,647.5,SBD,Single-ply,7
M. Hernandez,90,Collegiate,M,272.5,185,282.5,740,SBD,Single-ply,1
T. Booth,90,Collegiate,M,272.5,162.5,272.5,707.5,SBD,Single-ply,2
E. Cabrera,90,Collegiate,M,257.5,157.5,277.5,692.5,SBD,Single-ply,3
C. Taylor,90,Collegiate,M,262.5,172.5,240,675,SBD,Single-ply,4
S. Hodsden,90,Collegiate,M,250,162.5,245,657.5,SBD,Single-ply,5
S. Keen #1,90,Collegiate,M,237.5,167.5,245,650,SBD,Single-ply,6
K. Hartzell,90,Collegiate,M,240,157.5,245,642.5,SBD,Single-ply,7
D. Foster,90,Collegiate,M,,,,,SBD,Single-ply,DQ
R. Phillips,90,Collegiate,M,,,,,SBD,Single-ply,DQ
Allen Wentworth,100,Collegiate,M,312.5,205,285,802.5,SBD,Single-ply,1
T. Nichols,100,Collegiate,M,280,190,277.5,747.5,SBD,Single-ply,2
Ron Zimmerman,100,Collegiate,M,275,200,260,735,SBD,Single-ply,3
J. Roou,100,Collegiate,M,285,165,277.5,727.5,SBD,Single-ply,5
Terry Halliday,100,Collegiate,M,295,165,270,730,SBD,Single-ply,4
M. Anderson,100,Collegiate,M,267.5,172.5,272.5,712.5,SBD,Single-ply,6
M. Gregoire,100,Collegiate,M,265,172.5,250,687.5,SBD,Single-ply,7
Brennan Marion,100,Collegiate,M,265,172.5,250,687.5,SBD,Single-ply,8
R. Hale,100,Collegiate,M,252.5,150,262.5,665,SBD,Single-ply,9
J. Drake,100,Collegiate,M,242.5,175,230,647.5,SBD,Single-ply,10
J. Ross,100,Collegiate,M,235,155,252.5,642.5,SBD,Single-ply,11
Norman McLaney,100,Collegiate,M,240,142.5,245,627.5,SBD,Single-ply,12
Steve Rodenberg,110,Collegiate,M,312.5,205,305,822.5,SBD,Single-ply,1
G. Keylon,110,Collegiate,M,322.5,195,287.5,805,SBD,Single-ply,2
C. Hoover,110,Collegiate,M,272.5,190,295,757.5,SBD,Single-ply,3
P. Taraba,110,Collegiate,M,297.5,170,285,752.5,SBD,Single-ply,4
J. Malone,110,Collegiate,M,277.5,197.5,265,740,SBD,Single-ply,5
L. Hernandez,110,Collegiate,M,280,195,252.5,727.5,SBD,Single-ply,6
E. Simmons,110,Collegiate,M,272.5,160,262.5,695,SBD,Single-ply,7
W. Howard,110,Collegiate,M,255,167.5,245,667.5,SBD,Single-ply,8
L. Johnson,110,Collegiate,M,232.5,152.5,237.5,622.5,SBD,Single-ply,9
D. Muns,110,Collegiate,M,257.5,,,,SBD,Single-ply,DQ
J. O'Neil,110,Collegiate,M,,,,,SBD,Single-ply,DQ
T. Campbell,125,Collegiate,M,320,182.5,285,787.5,SBD,Single-ply,1
D. Damelio,125,Collegiate,M,280,180,255,715,SBD,Single-ply,2
Kevin Fertic,125,Collegiate,M,267.5,190,250,707.5,SBD,Single-ply,3
D. Thomas,125,Collegiate,M,265,182.5,212.5,660,SBD,Single-ply,4
Jeff Maddy,125+,Collegiate,M,355,272.5,262.5,890,SBD,Single-ply,1
P. Bernard,125+,Collegiate,M,307.5,227.5,265,800,SBD,Single-ply,2
D. Freiling,125+,Collegiate,M,285,120,272.5,677.5,SBD,Single-ply,3
